 
 
###Initial Performance Information###
 
Memory Usage: 485/5946MB (8.16%)
Disk Usage: 8/49GB (19%)
CPU Load: 0.24
 
### Checking of Performance Utilization Test ###
 
Checking the DS Agent Driver
 
 
Starting Malware Scan
dsa_control
HTTP Status: 200 - OK
Response:
Manager contact has been scheduled to occur in the next few seconds.
Malware Scan Running
 
 
### Utilization while Anti-Malware is Running ###
Memory Usage: 486/5946MB (8.17%)
Disk Usage: 8/49GB (19%)
CPU Load: 0.01
 
Ending Malware Scan
dsa_control
HTTP Status: 200 - OK
Response:
Manager contact has been scheduled to occur in the next few seconds.
 
 
 End of Malware Scan 
 
 
### Starting Rebuild of Baseline ###
 
dsa_control
HTTP Status: 200 - OK
Response:
Manager contact has been scheduled to occur in the next few seconds.
 
 
### Utilization while Rebuilding Baseline ###
 
 
Memory Usage: 486/5946MB (8.17%)
Disk Usage: 8/49GB (19%)
CPU Load: 0.16
 
End of Rebuilding of Baseline
 
### Starting Recommendation Scan ###
 
dsa_control
HTTP Status: 200 - OK
Response:
Manager contact has been scheduled to occur in the next few seconds.
 
### Utilization while Recommendation Scan is Running ###
Memory Usage: 486/5946MB (8.17%)
Disk Usage: 8/49GB (19%)
CPU Load: 0.03
 
### Ending Recommendation Scan ###
dsa_control
HTTP Status: 200 - OK
Response:
Manager contact has been scheduled to occur in the next few seconds.
 
 
### Starting Integrity Scan ####
dsa_control
HTTP Status: 200 - OK
Response:
Manager contact has been scheduled to occur in the next few seconds.
### Ending Integrity Scan ###
 
### Utilization while Integrity Scan ###
Memory Usage: 508/5946MB (8.54%)
Disk Usage: 8/49GB (19%)
CPU Load: 0.13
 
 
 Ending Performance Checking 
 Ending Test 
 
 
###Initial Performance Information###
 
Memory Usage: 520/5946MB (8.75%)
Disk Usage: 8/49GB (19%)
CPU Load: 0.12
 
### Checking of Performance Utilization Test ###
 
Checking the DS Agent Driver
 
 
Starting Malware Scan
dsa_control
HTTP Status: 200 - OK
Response:
Manager contact has been scheduled to occur in the next few seconds.
Malware Scan Running
 
 
### Utilization while Anti-Malware is Running ###
Memory Usage: 518/5946MB (8.71%)
Disk Usage: 8/49GB (19%)
CPU Load: 0.00
 
Ending Malware Scan
dsa_control
HTTP Status: 200 - OK
Response:
Manager contact has been scheduled to occur in the next few seconds.
 
 
 End of Malware Scan 
 
 
### Starting Rebuild of Baseline ###
 
dsa_control
HTTP Status: 200 - OK
Response:
Manager contact has been scheduled to occur in the next few seconds.
 
 
### Utilization while Rebuilding Baseline ###
 
 
Memory Usage: 520/5946MB (8.75%)
Disk Usage: 8/49GB (19%)
CPU Load: 0.03
 
End of Rebuilding of Baseline
 
### Starting Recommendation Scan ###
 
dsa_control
HTTP Status: 200 - OK
Response:
Manager contact has been scheduled to occur in the next few seconds.
 
### Utilization while Recommendation Scan is Running ###
Memory Usage: 520/5946MB (8.75%)
Disk Usage: 8/49GB (19%)
CPU Load: 0.00
 
### Ending Recommendation Scan ###
dsa_control
HTTP Status: 200 - OK
Response:
Manager contact has been scheduled to occur in the next few seconds.
 
 
### Starting Integrity Scan ####
dsa_control
HTTP Status: 200 - OK
Response:
Manager contact has been scheduled to occur in the next few seconds.
### Ending Integrity Scan ###
 
### Utilization while Integrity Scan ###
Memory Usage: 525/5946MB (8.83%)
Disk Usage: 8/49GB (19%)
CPU Load: 0.00
 
 
 Ending Performance Checking 
 Ending Test 
 
 
###Initial Performance Information###
 
Memory Usage: 502/5946MB (8.44%)
Disk Usage: 8/49GB (19%)
CPU Load: 0.13
 
### Checking of Performance Utilization Test ###
 
Checking the DS Agent Driver
 
 
Starting Malware Scan
dsa_control
HTTP Status: 200 - OK
Response:
Manager contact has been scheduled to occur in the next few seconds.
Malware Scan Running
 
 
### Utilization while Anti-Malware is Running ###
Memory Usage: 502/5946MB (8.44%)
Disk Usage: 8/49GB (19%)
CPU Load: 0.22
 
Ending Malware Scan
dsa_control
HTTP Status: 200 - OK
Response:
Manager contact has been scheduled to occur in the next few seconds.
 
 
 End of Malware Scan 
 
 
### Starting Rebuild of Baseline ###
 
dsa_control
HTTP Status: 200 - OK
Response:
Manager contact has been scheduled to occur in the next few seconds.
 
 
### Utilization while Rebuilding Baseline ###
 
 
Memory Usage: 502/5946MB (8.44%)
Disk Usage: 8/49GB (19%)
CPU Load: 0.03
 
End of Rebuilding of Baseline
 
### Starting Recommendation Scan ###
 
dsa_control
HTTP Status: 200 - OK
Response:
Manager contact has been scheduled to occur in the next few seconds.
 
### Utilization while Recommendation Scan is Running ###
Memory Usage: 502/5946MB (8.44%)
Disk Usage: 8/49GB (19%)
CPU Load: 0.00
 
### Ending Recommendation Scan ###
dsa_control
HTTP Status: 200 - OK
Response:
Manager contact has been scheduled to occur in the next few seconds.
 
 
### Starting Integrity Scan ####
dsa_control
HTTP Status: 200 - OK
Response:
Manager contact has been scheduled to occur in the next few seconds.
### Ending Integrity Scan ###
 
### Utilization while Integrity Scan ###
Memory Usage: 515/5946MB (8.66%)
Disk Usage: 8/49GB (19%)
CPU Load: 0.14
 
 
 Ending Performance Checking 
 Ending Test 
 
 
###Initial Performance Information###
 
Memory Usage: 520/5946MB (8.75%)
Disk Usage: 8/49GB (19%)
CPU Load: 0.00
 
### Checking of Performance Utilization Test ###
 
Checking the DS Agent Driver
 
 
Starting Malware Scan
 
 
###Initial Performance Information###
 
Memory Usage: 519/5946MB (8.73%)
Disk Usage: 8/49GB (19%)
CPU Load: 0.08
 
### Checking of Performance Utilization Test ###
 
Checking the DS Agent Driver
 
 
Starting Malware Scan
dsa_control
HTTP Status: 200 - OK
Response:
Manager contact has been scheduled to occur in the next few seconds.
dsa_control
HTTP Status: 200 - OK
Response:
Manager contact has been scheduled to occur in the next few seconds.
Malware Scan Running
Malware Scan Running
 
 
### Utilization while Anti-Malware is Running ###
Memory Usage: 519/5946MB (8.73%)
Disk Usage: 8/49GB (19%)
CPU Load: 0.02
 
 
### Utilization while Anti-Malware is Running ###
Memory Usage: 518/5946MB (8.71%)
Disk Usage: 8/49GB (19%)
CPU Load: 0.02
 
Ending Malware Scan
 
Ending Malware Scan
dsa_control
HTTP Status: 200 - OK
Response:
Manager contact has been scheduled to occur in the next few seconds.
 
 
 End of Malware Scan 
 
dsa_control
HTTP Status: 200 - OK
Response:
Manager contact has been scheduled to occur in the next few seconds.
 
 
 End of Malware Scan 
 
 
### Starting Rebuild of Baseline ###
 
dsa_control
HTTP Status: 200 - OK
Response:
Manager contact has been scheduled to occur in the next few seconds.
 
 
### Starting Rebuild of Baseline ###
 
dsa_control
HTTP Status: 200 - OK
Response:
Manager contact has been scheduled to occur in the next few seconds.
 
 
### Utilization while Rebuilding Baseline ###
 
 
Memory Usage: 519/5946MB (8.73%)
Disk Usage: 8/49GB (19%)
CPU Load: 0.08
 
End of Rebuilding of Baseline
 
### Utilization while Rebuilding Baseline ###
 
 
Memory Usage: 519/5946MB (8.73%)
Disk Usage: 8/49GB (19%)
CPU Load: 0.23
 
End of Rebuilding of Baseline
 
### Starting Recommendation Scan ###
 
dsa_control
HTTP Status: 200 - OK
Response:
Manager contact has been scheduled to occur in the next few seconds.
 
 
### Starting Recommendation Scan ###
 
dsa_control
HTTP Status: 200 - OK
Response:
Manager contact has been scheduled to occur in the next few seconds.
 
### Utilization while Recommendation Scan is Running ###
Memory Usage: 527/5946MB (8.86%)
Disk Usage: 8/49GB (19%)
CPU Load: 0.17
 
### Utilization while Recommendation Scan is Running ###
Memory Usage: 527/5946MB (8.86%)
Disk Usage: 8/49GB (19%)
CPU Load: 0.16
 
### Ending Recommendation Scan ###
dsa_control
HTTP Status: 200 - OK
Response:
Manager contact has been scheduled to occur in the next few seconds.
 
### Ending Recommendation Scan ###
dsa_control
HTTP Status: 200 - OK
Response:
Manager contact has been scheduled to occur in the next few seconds.
 
 
### Starting Integrity Scan ####
 
### Starting Integrity Scan ####
dsa_control
HTTP Status: 200 - OK
Response:
Manager contact has been scheduled to occur in the next few seconds.
### Ending Integrity Scan ###
 
dsa_control
HTTP Status: 200 - OK
Response:
Manager contact has been scheduled to occur in the next few seconds.
### Ending Integrity Scan ###
 
### Utilization while Integrity Scan ###
Memory Usage: 530/5946MB (8.91%)
Disk Usage: 8/49GB (19%)
CPU Load: 0.05
 
### Utilization while Integrity Scan ###
Memory Usage: 530/5946MB (8.91%)
Disk Usage: 8/49GB (19%)
CPU Load: 0.05
 
 
 Ending Performance Checking 
 Ending Test 
 
 Ending Performance Checking 
 Ending Test 
 
 
###Initial Performance Information###
 
Memory Usage: 530/5946MB (8.91%)
Disk Usage: 8/49GB (19%)
CPU Load: 0.30
 
### Checking of Performance Utilization Test ###
 
Checking the DS Agent Driver
 
 
Starting Malware Scan
 
 
###Initial Performance Information###
 
Memory Usage: 529/5946MB (8.90%)
Disk Usage: 8/49GB (19%)
CPU Load: 0.27
 
### Checking of Performance Utilization Test ###
 
Checking the DS Agent Driver
 
 
Starting Malware Scan
dsa_control
HTTP Status: 200 - OK
Response:
Manager contact has been scheduled to occur in the next few seconds.
dsa_control
HTTP Status: 200 - OK
Response:
Manager contact has been scheduled to occur in the next few seconds.
Malware Scan Running
Malware Scan Running
 
 
### Utilization while Anti-Malware is Running ###
Memory Usage: 528/5946MB (8.88%)
Disk Usage: 8/49GB (19%)
CPU Load: 0.10
 
 
### Utilization while Anti-Malware is Running ###
Memory Usage: 528/5946MB (8.88%)
Disk Usage: 8/49GB (19%)
CPU Load: 0.10
 
Ending Malware Scan
 
Ending Malware Scan
dsa_control
HTTP Status: 200 - OK
Response:
Manager contact has been scheduled to occur in the next few seconds.
 
 
 End of Malware Scan 
 
dsa_control
HTTP Status: 200 - OK
Response:
Manager contact has been scheduled to occur in the next few seconds.
 
 
 End of Malware Scan 
 
 
### Starting Rebuild of Baseline ###
 
dsa_control
HTTP Status: 200 - OK
Response:
Manager contact has been scheduled to occur in the next few seconds.
 
 
### Starting Rebuild of Baseline ###
 
dsa_control
HTTP Status: 200 - OK
Response:
Manager contact has been scheduled to occur in the next few seconds.
 
 
### Utilization while Rebuilding Baseline ###
 
 
Memory Usage: 529/5946MB (8.90%)
Disk Usage: 8/49GB (19%)
CPU Load: 0.06
 
End of Rebuilding of Baseline
 
### Utilization while Rebuilding Baseline ###
 
 
Memory Usage: 528/5946MB (8.88%)
Disk Usage: 8/49GB (19%)
CPU Load: 0.05
 
End of Rebuilding of Baseline
 
### Starting Recommendation Scan ###
 
dsa_control
HTTP Status: 200 - OK
Response:
Manager contact has been scheduled to occur in the next few seconds.
 
 
### Starting Recommendation Scan ###
 
dsa_control
HTTP Status: 200 - OK
Response:
Manager contact has been scheduled to occur in the next few seconds.
 
### Utilization while Recommendation Scan is Running ###
Memory Usage: 534/5946MB (8.98%)
Disk Usage: 8/49GB (19%)
CPU Load: 0.27
 
### Utilization while Recommendation Scan is Running ###
Memory Usage: 533/5946MB (8.96%)
Disk Usage: 8/49GB (19%)
CPU Load: 0.25
 
### Ending Recommendation Scan ###
dsa_control
HTTP Status: 200 - OK
Response:
Manager contact has been scheduled to occur in the next few seconds.
 
### Ending Recommendation Scan ###
dsa_control
HTTP Status: 200 - OK
Response:
Manager contact has been scheduled to occur in the next few seconds.
 
 
### Starting Integrity Scan ####
 
### Starting Integrity Scan ####
dsa_control
HTTP Status: 200 - OK
Response:
Manager contact has been scheduled to occur in the next few seconds.
### Ending Integrity Scan ###
 
dsa_control
HTTP Status: 200 - OK
Response:
Manager contact has been scheduled to occur in the next few seconds.
### Ending Integrity Scan ###
 
### Utilization while Integrity Scan ###
Memory Usage: 552/5946MB (9.28%)
Disk Usage: 8/49GB (19%)
CPU Load: 0.08
 
### Utilization while Integrity Scan ###
Memory Usage: 551/5946MB (9.27%)
Disk Usage: 8/49GB (19%)
CPU Load: 0.08
 
 
 Ending Performance Checking 
 Ending Test 
 
 Ending Performance Checking 
 Ending Test 
 
 
###Initial Performance Information###
 
Memory Usage: 524/5946MB (8.81%)
Disk Usage: 8/49GB (18%)
CPU Load: 0.03
 
### Checking of Performance Utilization Test ###
 
Checking the DS Agent Driver
 
 
Starting Malware Scan
 
 
###Initial Performance Information###
 
Memory Usage: 523/5946MB (8.80%)
Disk Usage: 8/49GB (18%)
CPU Load: 0.67
 
### Checking of Performance Utilization Test ###
 
Checking the DS Agent Driver
 
 
Starting Malware Scan
dsa_control
HTTP Status: 200 - OK
Response:
Manager contact has been scheduled to occur in the next few seconds.
dsa_control
HTTP Status: 200 - OK
Response:
Manager contact has been scheduled to occur in the next few seconds.
Malware Scan Running
Malware Scan Running
 
 
### Utilization while Anti-Malware is Running ###
Memory Usage: 521/5946MB (8.76%)
Disk Usage: 8/49GB (18%)
CPU Load: 0.06
 
 
### Utilization while Anti-Malware is Running ###
Memory Usage: 521/5946MB (8.76%)
Disk Usage: 8/49GB (18%)
CPU Load: 0.06
 
Ending Malware Scan
 
Ending Malware Scan
dsa_control
HTTP Status: 200 - OK
Response:
Manager contact has been scheduled to occur in the next few seconds.
 
 
 End of Malware Scan 
 
dsa_control
HTTP Status: 200 - OK
Response:
Manager contact has been scheduled to occur in the next few seconds.
 
 
 End of Malware Scan 
 
 
### Starting Rebuild of Baseline ###
 
dsa_control
HTTP Status: 200 - OK
Response:
Manager contact has been scheduled to occur in the next few seconds.
 
 
### Starting Rebuild of Baseline ###
 
dsa_control
HTTP Status: 200 - OK
Response:
Manager contact has been scheduled to occur in the next few seconds.
 
 
### Utilization while Rebuilding Baseline ###
 
 
Memory Usage: 521/5946MB (8.76%)
Disk Usage: 8/49GB (18%)
CPU Load: 0.27
 
End of Rebuilding of Baseline
 
### Utilization while Rebuilding Baseline ###
 
 
Memory Usage: 521/5946MB (8.76%)
Disk Usage: 8/49GB (18%)
CPU Load: 0.24
 
End of Rebuilding of Baseline
 
### Starting Recommendation Scan ###
 
dsa_control
HTTP Status: 200 - OK
Response:
Manager contact has been scheduled to occur in the next few seconds.
 
 
### Starting Recommendation Scan ###
 
dsa_control
HTTP Status: 200 - OK
Response:
Manager contact has been scheduled to occur in the next few seconds.
 
### Utilization while Recommendation Scan is Running ###
Memory Usage: 529/5946MB (8.90%)
Disk Usage: 8/49GB (18%)
CPU Load: 0.06
 
### Utilization while Recommendation Scan is Running ###
Memory Usage: 530/5946MB (8.91%)
Disk Usage: 8/49GB (18%)
CPU Load: 0.05
 
### Ending Recommendation Scan ###
dsa_control
HTTP Status: 200 - OK
Response:
Manager contact has been scheduled to occur in the next few seconds.
 
### Ending Recommendation Scan ###
dsa_control
HTTP Status: 200 - OK
Response:
Manager contact has been scheduled to occur in the next few seconds.
 
 
### Starting Integrity Scan ####
 
### Starting Integrity Scan ####
dsa_control
HTTP Status: 200 - OK
Response:
Manager contact has been scheduled to occur in the next few seconds.
### Ending Integrity Scan ###
 
dsa_control
HTTP Status: 200 - OK
Response:
Manager contact has been scheduled to occur in the next few seconds.
### Ending Integrity Scan ###
 
### Utilization while Integrity Scan ###
Memory Usage: 531/5946MB (8.93%)
Disk Usage: 8/49GB (18%)
CPU Load: 0.10
 
### Utilization while Integrity Scan ###
Memory Usage: 531/5946MB (8.93%)
Disk Usage: 8/49GB (18%)
CPU Load: 0.09
 
 
 Ending Performance Checking 
 Ending Test 
 
 Ending Performance Checking 
 Ending Test 
 
 
###Initial Performance Information###
 
Memory Usage: 523/5946MB (8.80%)
Disk Usage: 8/49GB (18%)
CPU Load: 0.11
 
### Checking of Performance Utilization Test ###
 
Checking the DS Agent Driver
 
 
Starting Malware Scan
dsa_control
HTTP Status: 200 - OK
Response:
Manager contact has been scheduled to occur in the next few seconds.
Malware Scan Running
 
 
### Utilization while Anti-Malware is Running ###
Memory Usage: 522/5946MB (8.78%)
Disk Usage: 8/49GB (18%)
CPU Load: 0.02
 
Ending Malware Scan
dsa_control
HTTP Status: 200 - OK
Response:
Manager contact has been scheduled to occur in the next few seconds.
 
 
 End of Malware Scan 
 
 
### Starting Rebuild of Baseline ###
 
dsa_control
HTTP Status: 200 - OK
Response:
Manager contact has been scheduled to occur in the next few seconds.
 
 
### Utilization while Rebuilding Baseline ###
 
 
Memory Usage: 522/5946MB (8.78%)
Disk Usage: 8/49GB (18%)
CPU Load: 0.00
 
End of Rebuilding of Baseline
 
### Starting Recommendation Scan ###
 
dsa_control
HTTP Status: 200 - OK
Response:
Manager contact has been scheduled to occur in the next few seconds.
 
### Utilization while Recommendation Scan is Running ###
Memory Usage: 525/5946MB (8.83%)
Disk Usage: 8/49GB (18%)
CPU Load: 0.22
 
### Ending Recommendation Scan ###
dsa_control
HTTP Status: 200 - OK
Response:
Manager contact has been scheduled to occur in the next few seconds.
 
 
### Starting Integrity Scan ####
dsa_control
HTTP Status: 200 - OK
Response:
Manager contact has been scheduled to occur in the next few seconds.
### Ending Integrity Scan ###
 
### Utilization while Integrity Scan ###
Memory Usage: 523/5946MB (8.80%)
Disk Usage: 8/49GB (18%)
CPU Load: 0.12
 
 
 Ending Performance Checking 
 Ending Test 
 
 
###Initial Performance Information###
 
Memory Usage: 527/5946MB (8.86%)
Disk Usage: 8/49GB (18%)
CPU Load: 0.14
 
### Checking of Performance Utilization Test ###
 
Checking the DS Agent Driver
 
 
Starting Malware Scan
dsa_control
HTTP Status: 200 - OK
Response:
Manager contact has been scheduled to occur in the next few seconds.
Malware Scan Running
 
 
### Utilization while Anti-Malware is Running ###
Memory Usage: 525/5946MB (8.83%)
Disk Usage: 8/49GB (18%)
CPU Load: 0.03
 
Ending Malware Scan
dsa_control
HTTP Status: 200 - OK
Response:
Manager contact has been scheduled to occur in the next few seconds.
 
 
 End of Malware Scan 
 
 
### Starting Rebuild of Baseline ###
 
dsa_control
HTTP Status: 200 - OK
Response:
Manager contact has been scheduled to occur in the next few seconds.
 
 
### Utilization while Rebuilding Baseline ###
 
 
Memory Usage: 526/5946MB (8.85%)
Disk Usage: 8/49GB (18%)
CPU Load: 0.00
 
End of Rebuilding of Baseline
 
### Starting Recommendation Scan ###
 
dsa_control
HTTP Status: 200 - OK
Response:
Manager contact has been scheduled to occur in the next few seconds.
 
### Utilization while Recommendation Scan is Running ###
Memory Usage: 529/5946MB (8.90%)
Disk Usage: 8/49GB (18%)
CPU Load: 0.00
 
### Ending Recommendation Scan ###
dsa_control
HTTP Status: 200 - OK
Response:
Manager contact has been scheduled to occur in the next few seconds.
 
 
### Starting Integrity Scan ####
dsa_control
HTTP Status: 200 - OK
Response:
Manager contact has been scheduled to occur in the next few seconds.
### Ending Integrity Scan ###
 
### Utilization while Integrity Scan ###
Memory Usage: 528/5946MB (8.88%)
Disk Usage: 8/49GB (18%)
CPU Load: 0.00
 
 
 Ending Performance Checking 
 Ending Test 
 
 
###Initial Performance Information###
 
Memory Usage: 521/5946MB (8.76%)
Disk Usage: 8/49GB (18%)
CPU Load: 0.14
 
### Checking of Performance Utilization Test ###
 
Checking the DS Agent Driver
 
 
Starting Malware Scan
dsa_control
HTTP Status: 200 - OK
Response:
Manager contact has been scheduled to occur in the next few seconds.
Malware Scan Running
 
 
### Utilization while Anti-Malware is Running ###
Memory Usage: 519/5946MB (8.73%)
Disk Usage: 8/49GB (18%)
CPU Load: 0.01
 
Ending Malware Scan
dsa_control
HTTP Status: 200 - OK
Response:
Manager contact has been scheduled to occur in the next few seconds.
 
 
 End of Malware Scan 
 
 
### Starting Rebuild of Baseline ###
 
dsa_control
HTTP Status: 200 - OK
Response:
Manager contact has been scheduled to occur in the next few seconds.
 
 
### Utilization while Rebuilding Baseline ###
 
 
Memory Usage: 519/5946MB (8.73%)
Disk Usage: 8/49GB (18%)
CPU Load: 0.00
 
End of Rebuilding of Baseline
 
### Starting Recommendation Scan ###
 
dsa_control
HTTP Status: 200 - OK
Response:
Manager contact has been scheduled to occur in the next few seconds.
 
### Utilization while Recommendation Scan is Running ###
Memory Usage: 521/5946MB (8.76%)
Disk Usage: 8/49GB (18%)
CPU Load: 0.19
 
### Ending Recommendation Scan ###
dsa_control
HTTP Status: 200 - OK
Response:
Manager contact has been scheduled to occur in the next few seconds.
 
 
### Starting Integrity Scan ####
dsa_control
HTTP Status: 403 - Forbidden - activate agent first.
### Ending Integrity Scan ###
 
### Utilization while Integrity Scan ###
Memory Usage: 522/5946MB (8.78%)
Disk Usage: 8/49GB (18%)
CPU Load: 0.10
 
 
 Ending Performance Checking 
 Ending Test 
 
 
###Initial Performance Information###
 
Memory Usage: 522/5946MB (8.78%)
Disk Usage: 8/49GB (18%)
CPU Load: 0.00
 
### Checking of Performance Utilization Test ###
 
Checking the DS Agent Driver
 
 
Starting Malware Scan
dsa_control
HTTP Status: 403 - Forbidden - activate agent first.
Malware Scan Running
 
 
### Utilization while Anti-Malware is Running ###
Memory Usage: 521/5946MB (8.76%)
Disk Usage: 8/49GB (18%)
CPU Load: 0.00
 
Ending Malware Scan
dsa_control
HTTP Status: 403 - Forbidden - activate agent first.
 
 
 End of Malware Scan 
 
 
### Starting Rebuild of Baseline ###
 
dsa_control
HTTP Status: 403 - Forbidden - activate agent first.
 
 
### Utilization while Rebuilding Baseline ###
 
 
Memory Usage: 520/5946MB (8.75%)
Disk Usage: 8/49GB (18%)
CPU Load: 0.14
 
End of Rebuilding of Baseline
 
### Starting Recommendation Scan ###
 
dsa_control
HTTP Status: 403 - Forbidden - activate agent first.
 
### Utilization while Recommendation Scan is Running ###
Memory Usage: 521/5946MB (8.76%)
Disk Usage: 8/49GB (18%)
CPU Load: 0.03
 
### Ending Recommendation Scan ###
dsa_control
HTTP Status: 403 - Forbidden - activate agent first.
 
 
### Starting Integrity Scan ####
dsa_control
HTTP Status: 403 - Forbidden - activate agent first.
### Ending Integrity Scan ###
 
### Utilization while Integrity Scan ###
Memory Usage: 521/5946MB (8.76%)
Disk Usage: 8/49GB (18%)
CPU Load: 0.01
 
 
 Ending Performance Checking 
 Ending Test 
 
 
###Initial Performance Information###
 
Memory Usage: 524/5946MB (8.81%)
Disk Usage: 8/49GB (18%)
CPU Load: 0.10
 
### Checking of Performance Utilization Test ###
 
Checking the DS Agent Driver
 
 
Starting Malware Scan
dsa_control
HTTP Status: 403 - Forbidden - activate agent first.
Malware Scan Running
 
 
### Utilization while Anti-Malware is Running ###
Memory Usage: 523/5946MB (8.80%)
Disk Usage: 8/49GB (18%)
 
 
###Initial Performance Information###
 
Memory Usage: 524/5946MB (8.81%)
Disk Usage: 8/49GB (18%)
CPU Load: 0.45
 
### Checking of Performance Utilization Test ###
 
Checking the DS Agent Driver
 
 
Starting Malware Scan
dsa_control
HTTP Status: 403 - Forbidden - activate agent first.
Malware Scan Running
 
 
### Utilization while Anti-Malware is Running ###
Memory Usage: 526/5946MB (8.85%)
 
 
###Initial Performance Information###
 
Memory Usage: 428/5946MB (7.20%)
Disk Usage: 8/49GB (18%)
CPU Load: 0.24
 
### Checking of Performance Utilization Test ###
 
Checking the DS Agent Driver
 
 
Starting Malware Scan
dsa_control
HTTP Status: 403 - Forbidden - activate agent first.
Malware Scan Running
 
 
### Utilization while Anti-Malware is Running ###
Memory Usage: 427/5946MB (7.18%)
Disk Usage: 8/49GB (18%)
CPU Load: 0.04
 
Ending Malware Scan
dsa_control
HTTP Status: 403 - Forbidden - activate agent first.
 
 
 End of Malware Scan 
 
 
### Starting Rebuild of Baseline ###
 
dsa_control
HTTP Status: 403 - Forbidden - activate agent first.
 
 
### Utilization while Rebuilding Baseline ###
 
 
Memory Usage: 429/5946MB (7.21%)
Disk Usage: 8/49GB (18%)
CPU Load: 0.38
 
End of Rebuilding of Baseline
 
### Starting Recommendation Scan ###
 
dsa_control
HTTP Status: 403 - Forbidden - activate agent first.
 
### Utilization while Recommendation Scan is Running ###
Memory Usage: 429/5946MB (7.21%)
Disk Usage: 8/49GB (18%)
CPU Load: 0.16
 
### Ending Recommendation Scan ###
dsa_control
HTTP Status: 403 - Forbidden - activate agent first.
 
 
### Starting Integrity Scan ####
dsa_control
HTTP Status: 403 - Forbidden - activate agent first.
### Ending Integrity Scan ###
 
### Utilization while Integrity Scan ###
Memory Usage: 430/5946MB (7.23%)
Disk Usage: 8/49GB (18%)
CPU Load: 0.08
 
 
 Ending Performance Checking 
 Ending Test 
 
 
###Initial Performance Information###
 
Memory Usage: 437/5946MB (7.35%)
Disk Usage: 8/49GB (18%)
CPU Load: 0.23
 
### Checking of Performance Utilization Test ###
 
Checking the DS Agent Driver
 
 
Starting Malware Scan
dsa_control
HTTP Status: 403 - Forbidden - activate agent first.
Malware Scan Running
 
 
### Utilization while Anti-Malware is Running ###
Memory Usage: 435/5946MB (7.32%)
 
 
###Initial Performance Information###
 
Memory Usage: 434/5946MB (7.30%)
Disk Usage: 8/49GB (18%)
CPU Load: 0.00
 
### Checking of Performance Utilization Test ###
 
Checking the DS Agent Driver
 
 
Starting Malware Scan
dsa_control
HTTP Status: 403 - Forbidden - activate agent first.
Malware Scan Running
 
 
### Utilization while Anti-Malware is Running ###
Memory Usage: 441/5946MB (7.42%)
Disk Usage: 8/49GB (18%)
 
 
###Initial Performance Information###
 
Memory Usage: 442/5946MB (7.43%)
Disk Usage: 8/49GB (18%)
CPU Load: 0.16
 
### Checking of Performance Utilization Test ###
 
Checking the DS Agent Driver
 
 
Starting Malware Scan
dsa_control
HTTP Status: 403 - Forbidden - activate agent first.
Malware Scan Running
 
 
### Utilization while Anti-Malware is Running ###
Memory Usage: 441/5946MB (7.42%)
Disk Usage: 8/49GB (18%)
 
 
###Initial Performance Information###
 
Memory Usage: 456/5946MB (7.67%)
Disk Usage: 8/49GB (18%)
CPU Load: 0.20
 
### Checking of Performance Utilization Test ###
 
Checking the DS Agent Driver
 
 
Starting Malware Scan
dsa_control
HTTP Status: 200 - OK
Response:
Manager contact has been scheduled to occur in the next few seconds.
Malware Scan Running
 
 
### Utilization while Anti-Malware is Running ###
Memory Usage: 623/5946MB (10.48%)
Disk Usage: 8/49GB (18%)
CPU Load: 0.75
 
Ending Malware Scan
dsa_control
HTTP Status: 200 - OK
Response:
Manager contact has been scheduled to occur in the next few seconds.
 
 
 End of Malware Scan 
 
 
### Starting Rebuild of Baseline ###
 
dsa_control
HTTP Status: 200 - OK
Response:
Manager contact has been scheduled to occur in the next few seconds.
 
 
### Utilization while Rebuilding Baseline ###
 
 
Memory Usage: 666/5946MB (11.20%)
Disk Usage: 8/49GB (18%)
CPU Load: 0.34
 
End of Rebuilding of Baseline
 
### Starting Recommendation Scan ###
 
dsa_control
HTTP Status: 200 - OK
Response:
Manager contact has been scheduled to occur in the next few seconds.
 
### Utilization while Recommendation Scan is Running ###
Memory Usage: 763/5946MB (12.83%)
Disk Usage: 8/49GB (18%)
CPU Load: 0.35
 
### Ending Recommendation Scan ###
dsa_control
HTTP Status: 200 - OK
Response:
Manager contact has been scheduled to occur in the next few seconds.
 
 
### Starting Integrity Scan ####
dsa_control
HTTP Status: 200 - OK
Response:
Manager contact has been scheduled to occur in the next few seconds.
### Ending Integrity Scan ###
 
### Utilization while Integrity Scan ###
Memory Usage: 790/5946MB (13.29%)
Disk Usage: 8/49GB (18%)
CPU Load: 0.49
 
 
 Ending Performance Checking 
 Ending Test 
 
 
###Initial Performance Information###
 
Memory Usage: 802/5946MB (13.49%)
Disk Usage: 8/49GB (18%)
CPU Load: 0.12
 
### Checking of Performance Utilization Test ###
 
Checking the DS Agent Driver
dsa_filter           1040384  2
dsa_filter_hook        16384  1 dsa_filter
gsch                  159744  4
redirfs                73728  1 gsch
tmhook                114688  29 gsch,bmhook
 
 
Starting Malware Scan
dsa_control
HTTP Status: 200 - OK
Response:
Manager contact has been scheduled to occur in the next few seconds.
Malware Scan Running
 
 
### Utilization while Anti-Malware is Running ###
Memory Usage: 801/5946MB (13.47%)
Disk Usage: 8/49GB (18%)
CPU Load: 0.05
 
Ending Malware Scan
dsa_control
HTTP Status: 200 - OK
Response:
Manager contact has been scheduled to occur in the next few seconds.
 
 
 End of Malware Scan 
 
 
### Starting Rebuild of Baseline ###
 
dsa_control
HTTP Status: 200 - OK
Response:
Manager contact has been scheduled to occur in the next few seconds.
 
 
### Utilization while Rebuilding Baseline ###
 
 
Memory Usage: 846/5946MB (14.23%)
Disk Usage: 8/49GB (18%)
CPU Load: 0.37
 
End of Rebuilding of Baseline
 
### Starting Recommendation Scan ###
 
dsa_control
HTTP Status: 200 - OK
Response:
Manager contact has been scheduled to occur in the next few seconds.
 
### Utilization while Recommendation Scan is Running ###
Memory Usage: 848/5946MB (14.26%)
Disk Usage: 8/49GB (18%)
CPU Load: 0.08
 
### Ending Recommendation Scan ###
dsa_control
HTTP Status: 200 - OK
Response:
Manager contact has been scheduled to occur in the next few seconds.
 
 
### Starting Integrity Scan ####
dsa_control
HTTP Status: 200 - OK
Response:
Manager contact has been scheduled to occur in the next few seconds.
### Ending Integrity Scan ###
 
### Utilization while Integrity Scan ###
Memory Usage: 864/5946MB (14.53%)
Disk Usage: 8/49GB (18%)
CPU Load: 0.40
 
 
 Ending Performance Checking 
 Ending Test 
 
 
###Initial Performance Information###
 
Memory Usage: 759/5946MB (12.76%)
Disk Usage: 8/49GB (18%)
CPU Load: 0.31
 
### Checking of Performance Utilization Test ###
 
Checking the DS Agent Driver
dsa_filter           1040384  2
dsa_filter_hook        16384  1 dsa_filter
gsch                  159744  4
redirfs                73728  1 gsch
tmhook                114688  29 gsch,bmhook
 
 
Starting Malware Scan
dsa_control
HTTP Status: 200 - OK
Response:
Manager contact has been scheduled to occur in the next few seconds.
Malware Scan Running
 
 
### Utilization while Anti-Malware is Running ###
Memory Usage: 761/5946MB (12.80%)
Disk Usage: 8/49GB (18%)
CPU Load: 0.05
 
Ending Malware Scan
dsa_control
HTTP Status: 200 - OK
Response:
Manager contact has been scheduled to occur in the next few seconds.
 
 
 End of Malware Scan 
 
 
### Starting Rebuild of Baseline ###
 
dsa_control
HTTP Status: 200 - OK
Response:
Manager contact has been scheduled to occur in the next few seconds.
 
 
### Utilization while Rebuilding Baseline ###
 
 
Memory Usage: 790/5946MB (13.29%)
Disk Usage: 8/49GB (18%)
CPU Load: 0.18
 
End of Rebuilding of Baseline
 
### Starting Recommendation Scan ###
 
dsa_control
HTTP Status: 200 - OK
Response:
Manager contact has been scheduled to occur in the next few seconds.
 
### Utilization while Recommendation Scan is Running ###
Memory Usage: 790/5946MB (13.29%)
Disk Usage: 8/49GB (18%)
CPU Load: 0.06
 
### Ending Recommendation Scan ###
dsa_control
HTTP Status: 200 - OK
Response:
Manager contact has been scheduled to occur in the next few seconds.
 
 
### Starting Integrity Scan ####
dsa_control
HTTP Status: 200 - OK
Response:
Manager contact has been scheduled to occur in the next few seconds.
### Ending Integrity Scan ###
 
### Utilization while Integrity Scan ###
Memory Usage: 804/5946MB (13.52%)
Disk Usage: 8/49GB (18%)
CPU Load: 0.38
 
 
 Ending Performance Checking 
 Ending Test 
 
 
###Initial Performance Information###
 
Memory Usage: 764/5946MB (12.85%)
Disk Usage: 8/49GB (18%)
CPU Load: 0.10
 
### Checking of Performance Utilization Test ###
 
Checking the DS Agent Driver
dsa_filter           1040384  2
dsa_filter_hook        16384  1 dsa_filter
gsch                  159744  4
redirfs                73728  1 gsch
tmhook                114688  29 gsch,bmhook
 
 
Starting Malware Scan
dsa_control
HTTP Status: 200 - OK
Response:
Manager contact has been scheduled to occur in the next few seconds.
Malware Scan Running
 
 
### Utilization while Anti-Malware is Running ###
Memory Usage: 763/5946MB (12.83%)
Disk Usage: 8/49GB (18%)
 
 
###Initial Performance Information###
 
Memory Usage: 781/5946MB (13.13%)
Disk Usage: 8/49GB (18%)
CPU Load: 0.35
 
### Checking of Performance Utilization Test ###
 
Checking the DS Agent Driver
dsa_filter           1040384  2
dsa_filter_hook        16384  1 dsa_filter
gsch                  159744  4
redirfs                73728  1 gsch
tmhook                114688  29 gsch,bmhook
 
 
Starting Malware Scan
dsa_control
HTTP Status: 200 - OK
Response:
Manager contact has been scheduled to occur in the next few seconds.
Malware Scan Running
 
 
### Utilization while Anti-Malware is Running ###
Memory Usage: 781/5946MB (13.13%)
Disk Usage: 8/49GB (18%)
 
 
###Initial Performance Information###
 
Memory Usage: 754/5946MB (12.68%)
Disk Usage: 8/49GB (18%)
CPU Load: 0.74
 
### Checking of Performance Utilization Test ###
 
Checking the DS Agent Driver
dsa_filter           1040384  2
dsa_filter_hook        16384  1 dsa_filter
gsch                  159744  4
redirfs                73728  1 gsch
tmhook                114688  30 gsch,bmhook
 
 
Starting Malware Scan
dsa_control
HTTP Status: 200 - OK
Response:
Manager contact has been scheduled to occur in the next few seconds.
Malware Scan Running
 
 
### Utilization while Anti-Malware is Running ###
Memory Usage: 763/5946MB (12.83%)
Disk Usage: 8/49GB (18%)
CPU Load: 0.04
 
Ending Malware Scan
dsa_control
HTTP Status: 200 - OK
Response:
Manager contact has been scheduled to occur in the next few seconds.
 
 
 End of Malware Scan 
 
 
### Starting Rebuild of Baseline ###
 
dsa_control
HTTP Status: 200 - OK
Response:
Manager contact has been scheduled to occur in the next few seconds.
 
 
### Utilization while Rebuilding Baseline ###
 
 
Memory Usage: 780/5946MB (13.12%)
Disk Usage: 8/49GB (18%)
CPU Load: 0.40
 
End of Rebuilding of Baseline
 
### Starting Recommendation Scan ###
 
dsa_control
HTTP Status: 200 - OK
Response:
Manager contact has been scheduled to occur in the next few seconds.
 
### Utilization while Recommendation Scan is Running ###
Memory Usage: 786/5946MB (13.22%)
Disk Usage: 8/49GB (18%)
CPU Load: 0.40
 
### Ending Recommendation Scan ###
dsa_control
HTTP Status: 200 - OK
Response:
Manager contact has been scheduled to occur in the next few seconds.
 
 
### Starting Integrity Scan ####
dsa_control
HTTP Status: 200 - OK
Response:
Manager contact has been scheduled to occur in the next few seconds.
### Ending Integrity Scan ###
 
### Utilization while Integrity Scan ###
Memory Usage: 801/5946MB (13.47%)
Disk Usage: 8/49GB (18%)
CPU Load: 0.89
 
 
 Ending Performance Checking 
 Ending Test 
 
 
###Initial Performance Information###
 
Memory Usage: 811/5946MB (13.64%)
Disk Usage: 8/49GB (18%)
CPU Load: 0.36
 
### Checking of Performance Utilization Test ###
 
Checking the DS Agent Driver
dsa_filter           1040384  2
dsa_filter_hook        16384  1 dsa_filter
gsch                  159744  4
redirfs                73728  1 gsch
tmhook                114688  29 gsch,bmhook
 
 
Starting Malware Scan
dsa_control
HTTP Status: 200 - OK
Response:
Manager contact has been scheduled to occur in the next few seconds.
Malware Scan Running
 
 
### Utilization while Anti-Malware is Running ###
Memory Usage: 813/5946MB (13.67%)
Disk Usage: 8/49GB (18%)
CPU Load: 0.02
 
Ending Malware Scan
dsa_control
HTTP Status: 200 - OK
Response:
Manager contact has been scheduled to occur in the next few seconds.
 
 
 End of Malware Scan 
 
 
### Starting Rebuild of Baseline ###
 
dsa_control
HTTP Status: 200 - OK
Response:
Manager contact has been scheduled to occur in the next few seconds.
 
 
### Utilization while Rebuilding Baseline ###
 
 
Memory Usage: 826/5946MB (13.89%)
Disk Usage: 8/49GB (18%)
CPU Load: 0.26
 
End of Rebuilding of Baseline
 
### Starting Recommendation Scan ###
 
dsa_control
HTTP Status: 200 - OK
Response:
Manager contact has been scheduled to occur in the next few seconds.
 
### Utilization while Recommendation Scan is Running ###
Memory Usage: 828/5946MB (13.93%)
Disk Usage: 8/49GB (18%)
CPU Load: 0.36
 
### Ending Recommendation Scan ###
dsa_control
HTTP Status: 200 - OK
Response:
Manager contact has been scheduled to occur in the next few seconds.
 
 
### Starting Integrity Scan ####
dsa_control
HTTP Status: 200 - OK
Response:
Manager contact has been scheduled to occur in the next few seconds.
### Ending Integrity Scan ###
 
### Utilization while Integrity Scan ###
Memory Usage: 840/5946MB (14.13%)
Disk Usage: 8/49GB (18%)
CPU Load: 0.16
 
 
 Ending Performance Checking 
 Ending Test 
 
 
###Initial Performance Information###
 
Memory Usage: 746/5946MB (12.55%)
Disk Usage: 8/49GB (18%)
CPU Load: 0.18
 
### Checking of Performance Utilization Test ###
 
Checking the DS Agent Driver
dsa_filter           1040384  2
dsa_filter_hook        16384  1 dsa_filter
gsch                  159744  5
redirfs                73728  1 gsch
tmhook                114688  29 gsch,bmhook
 
 
Starting Malware Scan
dsa_control
HTTP Status: 200 - OK
Response:
Manager contact has been scheduled to occur in the next few seconds.
Malware Scan Running
 
 
### Utilization while Anti-Malware is Running ###
Memory Usage: 757/5946MB (12.73%)
Disk Usage: 8/49GB (18%)
CPU Load: 0.01
 
Ending Malware Scan
dsa_control
HTTP Status: 200 - OK
Response:
Manager contact has been scheduled to occur in the next few seconds.
 
 
 End of Malware Scan 
 
 
### Starting Rebuild of Baseline ###
 
dsa_control
HTTP Status: 200 - OK
Response:
Manager contact has been scheduled to occur in the next few seconds.
 
 
### Utilization while Rebuilding Baseline ###
 
 
Memory Usage: 776/5946MB (13.05%)
Disk Usage: 8/49GB (18%)
CPU Load: 0.37
 
End of Rebuilding of Baseline
 
### Starting Recommendation Scan ###
 
dsa_control
HTTP Status: 200 - OK
Response:
Manager contact has been scheduled to occur in the next few seconds.
 
### Utilization while Recommendation Scan is Running ###
Memory Usage: 774/5946MB (13.02%)
Disk Usage: 8/49GB (18%)
CPU Load: 0.12
 
### Ending Recommendation Scan ###
dsa_control
HTTP Status: 200 - OK
Response:
Manager contact has been scheduled to occur in the next few seconds.
 
 
### Starting Integrity Scan ####
dsa_control
HTTP Status: 200 - OK
Response:
Manager contact has been scheduled to occur in the next few seconds.
### Ending Integrity Scan ###
 
### Utilization while Integrity Scan ###
Memory Usage: 815/5946MB (13.71%)
Disk Usage: 8/49GB (18%)
CPU Load: 0.73
 
 
 Ending Performance Checking 
 Ending Test 
 
 
###Initial Performance Information###
 
Memory Usage: 709/5946MB (11.92%)
Disk Usage: 8/49GB (19%)
CPU Load: 0.22
 
### Checking of Performance Utilization Test ###
 
Checking the DS Agent Driver
dsa_filter           1040384  2
dsa_filter_hook        16384  1 dsa_filter
gsch                  159744  4
redirfs                73728  1 gsch
tmhook                114688  29 gsch,bmhook
 
 
Starting Malware Scan
dsa_control
HTTP Status: 200 - OK
Response:
Manager contact has been scheduled to occur in the next few seconds.
Malware Scan Running
 
 
### Utilization while Anti-Malware is Running ###
Memory Usage: 713/5946MB (11.99%)
Disk Usage: 8/49GB (19%)
CPU Load: 0.26
 
Ending Malware Scan
dsa_control
HTTP Status: 200 - OK
Response:
Manager contact has been scheduled to occur in the next few seconds.
 
 
 End of Malware Scan 
 
 
### Starting Rebuild of Baseline ###
 
dsa_control
HTTP Status: 200 - OK
Response:
Manager contact has been scheduled to occur in the next few seconds.
 
 
### Utilization while Rebuilding Baseline ###
 
 
Memory Usage: 754/5946MB (12.68%)
Disk Usage: 8/49GB (19%)
CPU Load: 0.28
 
End of Rebuilding of Baseline
 
### Starting Recommendation Scan ###
 
dsa_control
HTTP Status: 200 - OK
Response:
Manager contact has been scheduled to occur in the next few seconds.
 
### Utilization while Recommendation Scan is Running ###
Memory Usage: 755/5946MB (12.70%)
Disk Usage: 8/49GB (19%)
CPU Load: 0.37
 
### Ending Recommendation Scan ###
dsa_control
HTTP Status: 200 - OK
Response:
Manager contact has been scheduled to occur in the next few seconds.
 
 
### Starting Integrity Scan ####
dsa_control
HTTP Status: 200 - OK
Response:
Manager contact has been scheduled to occur in the next few seconds.
### Ending Integrity Scan ###
 
### Utilization while Integrity Scan ###
Memory Usage: 803/5946MB (13.50%)
Disk Usage: 8/49GB (19%)
CPU Load: 0.70
 
 
 Ending Performance Checking 
 Ending Test 
 
 
###Initial Performance Information###
 
Memory Usage: 951/5946MB (15.99%)
Disk Usage: 12/49GB (25%)
CPU Load: 0.24
 
### Checking of Performance Utilization Test ###
 
Checking the DS Agent Driver
dsa_filter           1040384  2
dsa_filter_hook        16384  1 dsa_filter
gsch                  159744  4
redirfs                73728  1 gsch
tmhook                114688  29 gsch,bmhook
 
 
Starting Malware Scan
dsa_control
HTTP Status: 200 - OK
Response:
Manager contact has been scheduled to occur in the next few seconds.
Malware Scan Running
 
 
### Utilization while Anti-Malware is Running ###
Memory Usage: 962/5946MB (16.18%)
Disk Usage: 12/49GB (25%)
CPU Load: 0.09
 
Ending Malware Scan
dsa_control
HTTP Status: 200 - OK
Response:
Manager contact has been scheduled to occur in the next few seconds.
 
 
 End of Malware Scan 
 
 
### Starting Rebuild of Baseline ###
 
dsa_control
HTTP Status: 200 - OK
Response:
Manager contact has been scheduled to occur in the next few seconds.
 
 
### Utilization while Rebuilding Baseline ###
 
 
Memory Usage: 996/5946MB (16.75%)
Disk Usage: 12/49GB (26%)
CPU Load: 0.64
 
End of Rebuilding of Baseline
 
### Starting Recommendation Scan ###
 
dsa_control
HTTP Status: 200 - OK
Response:
Manager contact has been scheduled to occur in the next few seconds.
 
### Utilization while Recommendation Scan is Running ###
Memory Usage: 992/5946MB (16.68%)
Disk Usage: 12/49GB (26%)
CPU Load: 0.24
 
### Ending Recommendation Scan ###
dsa_control
HTTP Status: 200 - OK
Response:
Manager contact has been scheduled to occur in the next few seconds.
 
 
### Starting Integrity Scan ####
dsa_control
HTTP Status: 200 - OK
Response:
Manager contact has been scheduled to occur in the next few seconds.
### Ending Integrity Scan ###
 
### Utilization while Integrity Scan ###
Memory Usage: 1028/5946MB (17.29%)
Disk Usage: 12/49GB (26%)
CPU Load: 0.42
 
 
 Ending Performance Checking 
 Ending Test 
 
 
###Initial Performance Information###
 
Memory Usage: 1021/5946MB (17.17%)
Disk Usage: 12/49GB (25%)
CPU Load: 0.22
 
### Checking of Performance Utilization Test ###
 
Checking the DS Agent Driver
dsa_filter           1040384  2
dsa_filter_hook        16384  1 dsa_filter
gsch                  159744  4
redirfs                73728  1 gsch
tmhook                114688  29 gsch,bmhook
 
 
Starting Malware Scan
dsa_control
HTTP Status: 200 - OK
Response:
Manager contact has been scheduled to occur in the next few seconds.
Malware Scan Running
 
 
### Utilization while Anti-Malware is Running ###
Memory Usage: 1024/5946MB (17.22%)
Disk Usage: 12/49GB (25%)
CPU Load: 0.02
 
Ending Malware Scan
dsa_control
HTTP Status: 200 - OK
Response:
Manager contact has been scheduled to occur in the next few seconds.
 
 
 End of Malware Scan 
 
 
### Starting Rebuild of Baseline ###
 
dsa_control
HTTP Status: 200 - OK
Response:
Manager contact has been scheduled to occur in the next few seconds.
 
 
### Utilization while Rebuilding Baseline ###
 
 
Memory Usage: 1047/5946MB (17.61%)
Disk Usage: 12/49GB (26%)
CPU Load: 0.28
 
End of Rebuilding of Baseline
 
### Starting Recommendation Scan ###
 
dsa_control
HTTP Status: 200 - OK
Response:
Manager contact has been scheduled to occur in the next few seconds.
 
### Utilization while Recommendation Scan is Running ###
Memory Usage: 1065/5946MB (17.91%)
Disk Usage: 12/49GB (26%)
CPU Load: 0.11
 
### Ending Recommendation Scan ###
dsa_control
HTTP Status: 200 - OK
Response:
Manager contact has been scheduled to occur in the next few seconds.
 
 
### Starting Integrity Scan ####
dsa_control
HTTP Status: 200 - OK
Response:
Manager contact has been scheduled to occur in the next few seconds.
### Ending Integrity Scan ###
 
### Utilization while Integrity Scan ###
Memory Usage: 1118/5946MB (18.80%)
Disk Usage: 12/49GB (26%)
CPU Load: 0.52
 
 
 Ending Performance Checking 
 Ending Test 
